DV/test4/transcript
# Loading project q
vlog
vlog -f filelist.f
# Model Technology ModelSim - Intel FPGA Edition vlog 2020.1 Compiler 2020.02 Feb 28 2020
# Start time: 15:28:29 on Aug 10,2023
# vlog -reportprogress 300 -f filelist.f 
# -- Compiling module counter
# -- Compiling interface counter_interface
# -- Compiling package counter_tb_package
# -- Compiling module tb_top
# -- Importing package counter_tb_package
# 
# Top level modules:
# 	tb_top
# End time: 15:28:29 on Aug 10,2023, Elapsed time: 0:00:00
# Errors: 0, Warnings: 0
vsim tb_top
# vsim tb_top 
# Start time: 15:28:34 on Aug 10,2023
# Loading sv_std.std
# Loading work.counter_interface
# Loading work.counter_tb_package
# Loading work.tb_top
# Loading work.counter
# ** Warning: (vsim-PLI-3003) [TOFD] - System task or function '$$display' is not defined.
#    Time: 0 ps  Iteration: 0  Region: /counter_tb_package::counter_test::new File: counter_test.sv Line: 8
run -all
# ** Error (suppressible): (vsim-12023) Cannot execute undefined system task/function '$$display'
#    Time: 0 ps  Iteration: 0  Process: /tb_top/#INITIAL#39 File: counter_test.sv Line: 8
# Environment class created successfully
# agent class created successfully
# monitor class created successfully
# driver class created successfully
# scoreboard class created successfully
# passed data: 10
# data: 10
# $              100000 Simulation time
# ** Note: $finish    : ./tb_top.sv(44)
#    Time: 100 ns  Iteration: 0  Instance: /tb_top
# 1
# Break in Module tb_top at ./tb_top.sv line 44
pwd
# /home/samin/Documents/Ulkasemi/10_days/DV/test4
cd ..
# Cannot change directory while a simulation is in progress.
# Use the "quit -sim" command to unload the design first.
quit -sim
# End time: 15:28:57 on Aug 10,2023, Elapsed time: 0:00:23
# Errors: 1, Warnings: 2
cd ..
# reading /home/samin/intelFPGA/20.1/modelsim_ase/linuxaloem/../modelsim.ini
cd test3
run -all
# No Design Loaded!
vlog -f filelist.f
# Model Technology ModelSim - Intel FPGA Edition vlog 2020.1 Compiler 2020.02 Feb 28 2020
# Start time: 15:29:15 on Aug 10,2023
# vlog -reportprogress 300 -f filelist.f 
# -- Compiling module counter
# -- Compiling interface counter_interface
# -- Compiling package counter_tb_package
# -- Compiling module tb_top
# -- Importing package counter_tb_package
# 
# Top level modules:
# 	tb_top
# End time: 15:29:15 on Aug 10,2023, Elapsed time: 0:00:00
# Errors: 0, Warnings: 0
vsim tb_top
# vsim tb_top 
# Start time: 15:29:23 on Aug 10,2023
# Loading sv_std.std
# Loading work.counter_interface
# Loading work.counter_tb_package
# Loading work.tb_top
# Loading work.counter
# ** Warning: (vsim-PLI-3003) [TOFD] - System task or function '$$display' is not defined.
#    Time: 0 ps  Iteration: 0  Region: /counter_tb_package::counter_test::new File: counter_test.sv Line: 9
do run.do
# Model Technology ModelSim - Intel FPGA Edition vlog 2020.1 Compiler 2020.02 Feb 28 2020
# Start time: 15:30:45 on Aug 10,2023
# vlog -reportprogress 300 -f filelist.f 
# -- Compiling module counter
# -- Compiling interface counter_interface
# -- Compiling package counter_tb_package
# -- Compiling module tb_top
# -- Importing package counter_tb_package
# 
# Top level modules:
# 	tb_top
# End time: 15:30:45 on Aug 10,2023, Elapsed time: 0:00:00
# Errors: 0, Warnings: 0
# End time: 15:30:46 on Aug 10,2023, Elapsed time: 0:01:23
# Errors: 0, Warnings: 1
# vsim tb_top 
# Start time: 15:30:46 on Aug 10,2023
# Loading sv_std.std
# Loading work.counter_interface
# Loading work.counter_tb_package
# Loading work.tb_top
# Loading work.counter
# ** Warning: (vsim-PLI-3003) [TOFD] - System task or function '$$display' is not defined.
#    Time: 0 ps  Iteration: 0  Region: /counter_tb_package::counter_test::new File: counter_test.sv Line: 9
# ** Error: invalid command name "*"
# Error in macro ./run.do line 3
# invalid command name "*"
#     while executing
# "* add wave -position insertpoint sim:/tb_top/counter_intf/*"
do run.do
# Model Technology ModelSim - Intel FPGA Edition vlog 2020.1 Compiler 2020.02 Feb 28 2020
# Start time: 15:31:03 on Aug 10,2023
# vlog -reportprogress 300 -f filelist.f 
# -- Compiling module counter
# -- Compiling interface counter_interface
# -- Compiling package counter_tb_package
# -- Compiling module tb_top
# -- Importing package counter_tb_package
# 
# Top level modules:
# 	tb_top
# End time: 15:31:03 on Aug 10,2023, Elapsed time: 0:00:00
# Errors: 0, Warnings: 0
# End time: 15:31:04 on Aug 10,2023, Elapsed time: 0:00:18
# Errors: 1, Warnings: 1
# vsim tb_top 
# Start time: 15:31:04 on Aug 10,2023
# Loading sv_std.std
# Loading work.counter_interface
# Loading work.counter_tb_package
# Loading work.tb_top
# Loading work.counter
# ** Warning: (vsim-PLI-3003) [TOFD] - System task or function '$$display' is not defined.
#    Time: 0 ps  Iteration: 0  Region: /counter_tb_package::counter_test::new File: counter_test.sv Line: 9
# ** Error (suppressible): (vsim-12023) Cannot execute undefined system task/function '$$display'
#    Time: 0 ps  Iteration: 0  Process: /tb_top/#INITIAL#39 File: counter_test.sv Line: 9
# Environment class created successfully
# agent class created successfully
# monitor class created successfully
# driver class created successfully
# scoreboard class created successfully
# drive reset to 0
# @20000 MNTR_PKT :: '{data_in:0, load:0, enable:0, up_down:0, reset:0, data_out:0}
# @20000 RCV_PKT :: '{data_in:0, load:0, enable:0, up_down:0, reset:0, data_out:0}
# @40000 MNTR_PKT :: '{data_in:0, load:0, enable:0, up_down:0, reset:1, data_out:0}
# @40000 RCV_PKT :: '{data_in:0, load:0, enable:0, up_down:0, reset:1, data_out:0}
# @60000 MNTR_PKT :: '{data_in:32, load:1, enable:0, up_down:0, reset:1, data_out:0}
# @60000 RCV_PKT :: '{data_in:32, load:1, enable:0, up_down:0, reset:1, data_out:0}
# @80000 MNTR_PKT :: '{data_in:32, load:0, enable:0, up_down:0, reset:1, data_out:0}
# @80000 RCV_PKT :: '{data_in:32, load:0, enable:0, up_down:0, reset:1, data_out:0}
# @100000 MNTR_PKT :: '{data_in:32, load:0, enable:1, up_down:1, reset:1, data_out:1}
# @100000 RCV_PKT :: '{data_in:32, load:0, enable:1, up_down:1, reset:1, data_out:1}
# set load value
# @120000 MNTR_PKT :: '{data_in:32, load:0, enable:1, up_down:1, reset:1, data_out:2}
# @120000 RCV_PKT :: '{data_in:32, load:0, enable:1, up_down:1, reset:1, data_out:2}
# @140000 MNTR_PKT :: '{data_in:32, load:0, enable:1, up_down:1, reset:1, data_out:3}
# @140000 RCV_PKT :: '{data_in:32, load:0, enable:1, up_down:1, reset:1, data_out:3}
# up test
# @160000 MNTR_PKT :: '{data_in:32, load:1, enable:1, up_down:1, reset:1, data_out:4}
# @160000 RCV_PKT :: '{data_in:32, load:1, enable:1, up_down:1, reset:1, data_out:4}
# @180000 MNTR_PKT :: '{data_in:32, load:0, enable:1, up_down:1, reset:1, data_out:5}
# Down test
# @180000 RCV_PKT :: '{data_in:32, load:0, enable:1, up_down:1, reset:1, data_out:5}
# @200000 MNTR_PKT :: '{data_in:32, load:0, enable:1, up_down:0, reset:1, data_out:6}
# @200000 RCV_PKT :: '{data_in:32, load:0, enable:1, up_down:0, reset:1, data_out:6}
# @220000 MNTR_PKT :: '{data_in:32, load:0, enable:1, up_down:0, reset:1, data_out:5}
# @220000 RCV_PKT :: '{data_in:32, load:0, enable:1, up_down:0, reset:1, data_out:5}
# @240000 MNTR_PKT :: '{data_in:32, load:0, enable:1, up_down:0, reset:1, data_out:4}
# @240000 RCV_PKT :: '{data_in:32, load:0, enable:1, up_down:0, reset:1, data_out:4}
# @260000 MNTR_PKT :: '{data_in:32, load:0, enable:1, up_down:0, reset:1, data_out:3}
# @260000 RCV_PKT :: '{data_in:32, load:0, enable:1, up_down:0, reset:1, data_out:3}
# @280000 MNTR_PKT :: '{data_in:32, load:1, enable:1, up_down:0, reset:1, data_out:32}
# @280000 RCV_PKT :: '{data_in:32, load:1, enable:1, up_down:0, reset:1, data_out:32}
# @300000 MNTR_PKT :: '{data_in:32, load:0, enable:1, up_down:0, reset:1, data_out:31}
# @300000 RCV_PKT :: '{data_in:32, load:0, enable:1, up_down:0, reset:1, data_out:31}
# @320000 MNTR_PKT :: '{data_in:32, load:0, enable:1, up_down:0, reset:1, data_out:30}
# @320000 RCV_PKT :: '{data_in:32, load:0, enable:1, up_down:0, reset:1, data_out:30}
# @340000 MNTR_PKT :: '{data_in:32, load:0, enable:1, up_down:0, reset:1, data_out:29}
# @340000 RCV_PKT :: '{data_in:32, load:0, enable:1, up_down:0, reset:1, data_out:29}
# @360000 MNTR_PKT :: '{data_in:0, load:0, enable:0, up_down:0, reset:0, data_out:0}
# @360000 RCV_PKT :: '{data_in:0, load:0, enable:0, up_down:0, reset:0, data_out:0}
# @380000 MNTR_PKT :: '{data_in:0, load:0, enable:0, up_down:0, reset:1, data_out:0}
# @380000 RCV_PKT :: '{data_in:0, load:0, enable:0, up_down:0, reset:1, data_out:0}
# @400000 MNTR_PKT :: '{data_in:0, load:0, enable:0, up_down:0, reset:1, data_out:0}
# @400000 RCV_PKT :: '{data_in:0, load:0, enable:0, up_down:0, reset:1, data_out:0}
# @420000 MNTR_PKT :: '{data_in:0, load:0, enable:0, up_down:0, reset:1, data_out:0}
# @420000 RCV_PKT :: '{data_in:0, load:0, enable:0, up_down:0, reset:1, data_out:0}
# @440000 MNTR_PKT :: '{data_in:0, load:0, enable:0, up_down:0, reset:1, data_out:0}
# @440000 RCV_PKT :: '{data_in:0, load:0, enable:0, up_down:0, reset:1, data_out:0}
# @460000 MNTR_PKT :: '{data_in:0, load:0, enable:0, up_down:0, reset:1, data_out:0}
# @460000 RCV_PKT :: '{data_in:0, load:0, enable:0, up_down:0, reset:1, data_out:0}
# @480000 MNTR_PKT :: '{data_in:0, load:0, enable:0, up_down:0, reset:1, data_out:0}
# @480000 RCV_PKT :: '{data_in:0, load:0, enable:0, up_down:0, reset:1, data_out:0}
# @500000 MNTR_PKT :: '{data_in:0, load:0, enable:0, up_down:0, reset:1, data_out:0}
# @500000 RCV_PKT :: '{data_in:0, load:0, enable:0, up_down:0, reset:1, data_out:0}
# @520000 MNTR_PKT :: '{data_in:0, load:0, enable:0, up_down:0, reset:1, data_out:0}
# @520000 RCV_PKT :: '{data_in:0, load:0, enable:0, up_down:0, reset:1, data_out:0}
# @540000 MNTR_PKT :: '{data_in:0, load:0, enable:0, up_down:0, reset:1, data_out:0}
# @540000 RCV_PKT :: '{data_in:0, load:0, enable:0, up_down:0, reset:1, data_out:0}
# $              560000 Simulation time
# ** Note: $finish    : ./tb_top.sv(45)
#    Time: 560 ns  Iteration: 0  Instance: /tb_top
# 1
# Break in Module tb_top at ./tb_top.sv line 45
























do run.do
# Model Technology ModelSim - Intel FPGA Edition vlog 2020.1 Compiler 2020.02 Feb 28 2020
# Start time: 15:36:38 on Aug 10,2023
# vlog -reportprogress 300 -f filelist.f 
# -- Compiling module counter
# -- Compiling interface counter_interface
# -- Compiling package counter_tb_package
# -- Compiling module tb_top
# -- Importing package counter_tb_package
# 
# Top level modules:
# 	tb_top
# End time: 15:36:38 on Aug 10,2023, Elapsed time: 0:00:00
# Errors: 0, Warnings: 0
# End time: 15:36:38 on Aug 10,2023, Elapsed time: 0:05:34
# Errors: 1, Warnings: 1
# vsim tb_top 
# Start time: 15:36:38 on Aug 10,2023
# Loading sv_std.std
# Loading work.counter_interface
# Loading work.counter_tb_package
# Loading work.tb_top
# Loading work.counter
# ** Warning: (vsim-PLI-3003) [TOFD] - System task or function '$$display' is not defined.
#    Time: 0 ps  Iteration: 0  Region: /counter_tb_package::counter_test::new File: counter_test.sv Line: 9
# ** Error (suppressible): (vsim-12023) Cannot execute undefined system task/function '$$display'
#    Time: 0 ps  Iteration: 0  Process: /tb_top/#INITIAL#39 File: counter_test.sv Line: 9
# Environment class created successfully
# agent class created successfully
# monitor class created successfully
# driver class created successfully
# scoreboard class created successfully
# drive reset to 0
# @20000 MNTR_PKT :: '{data_in:0, load:0, enable:0, up_down:0, reset:0, data_out:0}
# @20000 RCV_PKT :: '{data_in:0, load:0, enable:0, up_down:0, reset:0, data_out:0}
# @40000 MNTR_PKT :: '{data_in:0, load:0, enable:0, up_down:0, reset:1, data_out:0}
# @40000 RCV_PKT :: '{data_in:0, load:0, enable:0, up_down:0, reset:1, data_out:0}
# @60000 MNTR_PKT :: '{data_in:32, load:1, enable:0, up_down:0, reset:1, data_out:0}
# @60000 RCV_PKT :: '{data_in:32, load:1, enable:0, up_down:0, reset:1, data_out:0}
# Load test FAILED
# @80000 MNTR_PKT :: '{data_in:32, load:0, enable:0, up_down:0, reset:1, data_out:0}
# @80000 RCV_PKT :: '{data_in:32, load:0, enable:0, up_down:0, reset:1, data_out:0}
# @100000 MNTR_PKT :: '{data_in:32, load:0, enable:1, up_down:1, reset:1, data_out:1}
# @100000 RCV_PKT :: '{data_in:32, load:0, enable:1, up_down:1, reset:1, data_out:1}
# set load value
# @120000 MNTR_PKT :: '{data_in:32, load:0, enable:1, up_down:1, reset:1, data_out:2}
# @120000 RCV_PKT :: '{data_in:32, load:0, enable:1, up_down:1, reset:1, data_out:2}
# @140000 MNTR_PKT :: '{data_in:32, load:0, enable:1, up_down:1, reset:1, data_out:3}
# @140000 RCV_PKT :: '{data_in:32, load:0, enable:1, up_down:1, reset:1, data_out:3}
# up test
# @160000 MNTR_PKT :: '{data_in:32, load:1, enable:1, up_down:1, reset:1, data_out:4}
# @160000 RCV_PKT :: '{data_in:32, load:1, enable:1, up_down:1, reset:1, data_out:4}
# Load test FAILED
# @180000 MNTR_PKT :: '{data_in:32, load:0, enable:1, up_down:1, reset:1, data_out:5}
# Down test
# @180000 RCV_PKT :: '{data_in:32, load:0, enable:1, up_down:1, reset:1, data_out:5}
# @200000 MNTR_PKT :: '{data_in:32, load:0, enable:1, up_down:0, reset:1, data_out:6}
# @200000 RCV_PKT :: '{data_in:32, load:0, enable:1, up_down:0, reset:1, data_out:6}
# @220000 MNTR_PKT :: '{data_in:32, load:0, enable:1, up_down:0, reset:1, data_out:5}
# @220000 RCV_PKT :: '{data_in:32, load:0, enable:1, up_down:0, reset:1, data_out:5}
# @240000 MNTR_PKT :: '{data_in:32, load:0, enable:1, up_down:0, reset:1, data_out:4}
# @240000 RCV_PKT :: '{data_in:32, load:0, enable:1, up_down:0, reset:1, data_out:4}
# @260000 MNTR_PKT :: '{data_in:32, load:0, enable:1, up_down:0, reset:1, data_out:3}
# @260000 RCV_PKT :: '{data_in:32, load:0, enable:1, up_down:0, reset:1, data_out:3}
# @280000 MNTR_PKT :: '{data_in:32, load:1, enable:1, up_down:0, reset:1, data_out:32}
# @280000 RCV_PKT :: '{data_in:32, load:1, enable:1, up_down:0, reset:1, data_out:32}
# Load test PASS
# @300000 MNTR_PKT :: '{data_in:32, load:0, enable:1, up_down:0, reset:1, data_out:31}
# @300000 RCV_PKT :: '{data_in:32, load:0, enable:1, up_down:0, reset:1, data_out:31}
# @320000 MNTR_PKT :: '{data_in:32, load:0, enable:1, up_down:0, reset:1, data_out:30}
# @320000 RCV_PKT :: '{data_in:32, load:0, enable:1, up_down:0, reset:1, data_out:30}
# @340000 MNTR_PKT :: '{data_in:32, load:0, enable:1, up_down:0, reset:1, data_out:29}
# @340000 RCV_PKT :: '{data_in:32, load:0, enable:1, up_down:0, reset:1, data_out:29}
# @360000 MNTR_PKT :: '{data_in:0, load:0, enable:0, up_down:0, reset:0, data_out:0}
# @360000 RCV_PKT :: '{data_in:0, load:0, enable:0, up_down:0, reset:0, data_out:0}
# @380000 MNTR_PKT :: '{data_in:0, load:0, enable:0, up_down:0, reset:1, data_out:0}
# @380000 RCV_PKT :: '{data_in:0, load:0, enable:0, up_down:0, reset:1, data_out:0}
# @400000 MNTR_PKT :: '{data_in:0, load:0, enable:0, up_down:0, reset:1, data_out:0}
# @400000 RCV_PKT :: '{data_in:0, load:0, enable:0, up_down:0, reset:1, data_out:0}
# @420000 MNTR_PKT :: '{data_in:0, load:0, enable:0, up_down:0, reset:1, data_out:0}
# @420000 RCV_PKT :: '{data_in:0, load:0, enable:0, up_down:0, reset:1, data_out:0}
# @440000 MNTR_PKT :: '{data_in:0, load:0, enable:0, up_down:0, reset:1, data_out:0}
# @440000 RCV_PKT :: '{data_in:0, load:0, enable:0, up_down:0, reset:1, data_out:0}
# @460000 MNTR_PKT :: '{data_in:0, load:0, enable:0, up_down:0, reset:1, data_out:0}
# @460000 RCV_PKT :: '{data_in:0, load:0, enable:0, up_down:0, reset:1, data_out:0}
# @480000 MNTR_PKT :: '{data_in:0, load:0, enable:0, up_down:0, reset:1, data_out:0}
# @480000 RCV_PKT :: '{data_in:0, load:0, enable:0, up_down:0, reset:1, data_out:0}
# @500000 MNTR_PKT :: '{data_in:0, load:0, enable:0, up_down:0, reset:1, data_out:0}
# @500000 RCV_PKT :: '{data_in:0, load:0, enable:0, up_down:0, reset:1, data_out:0}
# @520000 MNTR_PKT :: '{data_in:0, load:0, enable:0, up_down:0, reset:1, data_out:0}
# @520000 RCV_PKT :: '{data_in:0, load:0, enable:0, up_down:0, reset:1, data_out:0}
# @540000 MNTR_PKT :: '{data_in:0, load:0, enable:0, up_down:0, reset:1, data_out:0}
# @540000 RCV_PKT :: '{data_in:0, load:0, enable:0, up_down:0, reset:1, data_out:0}
# $              560000 Simulation time
# ** Note: $finish    : ./tb_top.sv(45)
#    Time: 560 ns  Iteration: 0  Instance: /tb_top
# 1
# Break in Module tb_top at ./tb_top.sv line 45











do run.do
# Model Technology ModelSim - Intel FPGA Edition vlog 2020.1 Compiler 2020.02 Feb 28 2020
# Start time: 15:37:51 on Aug 10,2023
# vlog -reportprogress 300 -f filelist.f 
# -- Compiling module counter
# -- Compiling interface counter_interface
# -- Compiling package counter_tb_package
# -- Compiling module tb_top
# -- Importing package counter_tb_package
# 
# Top level modules:
# 	tb_top
# End time: 15:37:51 on Aug 10,2023, Elapsed time: 0:00:00
# Errors: 0, Warnings: 0
# End time: 15:37:52 on Aug 10,2023, Elapsed time: 0:01:14
# Errors: 1, Warnings: 1
# vsim tb_top 
# Start time: 15:37:52 on Aug 10,2023
# Loading sv_std.std
# Loading work.counter_interface
# Loading work.counter_tb_package
# Loading work.tb_top
# Loading work.counter
# ** Warning: (vsim-PLI-3003) [TOFD] - System task or function '$$display' is not defined.
#    Time: 0 ps  Iteration: 0  Region: /counter_tb_package::counter_test::new File: counter_test.sv Line: 9
# ** Error (suppressible): (vsim-12023) Cannot execute undefined system task/function '$$display'
#    Time: 0 ps  Iteration: 0  Process: /tb_top/#INITIAL#39 File: counter_test.sv Line: 9
# Environment class created successfully
# agent class created successfully
# monitor class created successfully
# driver class created successfully
# scoreboard class created successfully
# drive reset to 0
# @20000 MNTR_PKT :: '{data_in:0, load:0, enable:0, up_down:0, reset:0, data_out:0}
# @20000 RCV_PKT :: '{data_in:0, load:0, enable:0, up_down:0, reset:0, data_out:0}
# @40000 MNTR_PKT :: '{data_in:0, load:0, enable:0, up_down:0, reset:1, data_out:0}
# @40000 RCV_PKT :: '{data_in:0, load:0, enable:0, up_down:0, reset:1, data_out:0}
# @60000 MNTR_PKT :: '{data_in:32, load:1, enable:0, up_down:0, reset:1, data_out:0}
# @60000 RCV_PKT :: '{data_in:32, load:1, enable:0, up_down:0, reset:1, data_out:0}
# 
# Load test FAILED
# @80000 MNTR_PKT :: '{data_in:32, load:0, enable:0, up_down:0, reset:1, data_out:0}
# @80000 RCV_PKT :: '{data_in:32, load:0, enable:0, up_down:0, reset:1, data_out:0}
# @100000 MNTR_PKT :: '{data_in:32, load:0, enable:1, up_down:1, reset:1, data_out:1}
# @100000 RCV_PKT :: '{data_in:32, load:0, enable:1, up_down:1, reset:1, data_out:1}
# set load value
# @120000 MNTR_PKT :: '{data_in:32, load:0, enable:1, up_down:1, reset:1, data_out:2}
# @120000 RCV_PKT :: '{data_in:32, load:0, enable:1, up_down:1, reset:1, data_out:2}
# @140000 MNTR_PKT :: '{data_in:32, load:0, enable:1, up_down:1, reset:1, data_out:3}
# @140000 RCV_PKT :: '{data_in:32, load:0, enable:1, up_down:1, reset:1, data_out:3}
# up test
# @160000 MNTR_PKT :: '{data_in:32, load:1, enable:1, up_down:1, reset:1, data_out:4}
# @160000 RCV_PKT :: '{data_in:32, load:1, enable:1, up_down:1, reset:1, data_out:4}
# 
# Load test FAILED
# @180000 MNTR_PKT :: '{data_in:32, load:0, enable:1, up_down:1, reset:1, data_out:5}
# Down test
# @180000 RCV_PKT :: '{data_in:32, load:0, enable:1, up_down:1, reset:1, data_out:5}
# @200000 MNTR_PKT :: '{data_in:32, load:0, enable:1, up_down:0, reset:1, data_out:6}
# @200000 RCV_PKT :: '{data_in:32, load:0, enable:1, up_down:0, reset:1, data_out:6}
# @220000 MNTR_PKT :: '{data_in:32, load:0, enable:1, up_down:0, reset:1, data_out:5}
# @220000 RCV_PKT :: '{data_in:32, load:0, enable:1, up_down:0, reset:1, data_out:5}
# @240000 MNTR_PKT :: '{data_in:32, load:0, enable:1, up_down:0, reset:1, data_out:4}
# @240000 RCV_PKT :: '{data_in:32, load:0, enable:1, up_down:0, reset:1, data_out:4}
# @260000 MNTR_PKT :: '{data_in:32, load:0, enable:1, up_down:0, reset:1, data_out:3}
# @260000 RCV_PKT :: '{data_in:32, load:0, enable:1, up_down:0, reset:1, data_out:3}
# @280000 MNTR_PKT :: '{data_in:32, load:1, enable:1, up_down:0, reset:1, data_out:32}
# @280000 RCV_PKT :: '{data_in:32, load:1, enable:1, up_down:0, reset:1, data_out:32}
# Load test PASS
# @300000 MNTR_PKT :: '{data_in:32, load:0, enable:1, up_down:0, reset:1, data_out:31}
# @300000 RCV_PKT :: '{data_in:32, load:0, enable:1, up_down:0, reset:1, data_out:31}
# @320000 MNTR_PKT :: '{data_in:32, load:0, enable:1, up_down:0, reset:1, data_out:30}
# @320000 RCV_PKT :: '{data_in:32, load:0, enable:1, up_down:0, reset:1, data_out:30}
# @340000 MNTR_PKT :: '{data_in:32, load:0, enable:1, up_down:0, reset:1, data_out:29}
# @340000 RCV_PKT :: '{data_in:32, load:0, enable:1, up_down:0, reset:1, data_out:29}
# @360000 MNTR_PKT :: '{data_in:0, load:0, enable:0, up_down:0, reset:0, data_out:0}
# @360000 RCV_PKT :: '{data_in:0, load:0, enable:0, up_down:0, reset:0, data_out:0}
# @380000 MNTR_PKT :: '{data_in:0, load:0, enable:0, up_down:0, reset:1, data_out:0}
# @380000 RCV_PKT :: '{data_in:0, load:0, enable:0, up_down:0, reset:1, data_out:0}
# @400000 MNTR_PKT :: '{data_in:0, load:0, enable:0, up_down:0, reset:1, data_out:0}
# @400000 RCV_PKT :: '{data_in:0, load:0, enable:0, up_down:0, reset:1, data_out:0}
# @420000 MNTR_PKT :: '{data_in:0, load:0, enable:0, up_down:0, reset:1, data_out:0}
# @420000 RCV_PKT :: '{data_in:0, load:0, enable:0, up_down:0, reset:1, data_out:0}
# @440000 MNTR_PKT :: '{data_in:0, load:0, enable:0, up_down:0, reset:1, data_out:0}
# @440000 RCV_PKT :: '{data_in:0, load:0, enable:0, up_down:0, reset:1, data_out:0}
# @460000 MNTR_PKT :: '{data_in:0, load:0, enable:0, up_down:0, reset:1, data_out:0}
# @460000 RCV_PKT :: '{data_in:0, load:0, enable:0, up_down:0, reset:1, data_out:0}
# @480000 MNTR_PKT :: '{data_in:0, load:0, enable:0, up_down:0, reset:1, data_out:0}
# @480000 RCV_PKT :: '{data_in:0, load:0, enable:0, up_down:0, reset:1, data_out:0}
# @500000 MNTR_PKT :: '{data_in:0, load:0, enable:0, up_down:0, reset:1, data_out:0}
# @500000 RCV_PKT :: '{data_in:0, load:0, enable:0, up_down:0, reset:1, data_out:0}
# @520000 MNTR_PKT :: '{data_in:0, load:0, enable:0, up_down:0, reset:1, data_out:0}
# @520000 RCV_PKT :: '{data_in:0, load:0, enable:0, up_down:0, reset:1, data_out:0}
# @540000 MNTR_PKT :: '{data_in:0, load:0, enable:0, up_down:0, reset:1, data_out:0}
# @540000 RCV_PKT :: '{data_in:0, load:0, enable:0, up_down:0, reset:1, data_out:0}
# $              560000 Simulation time
# ** Note: $finish    : ./tb_top.sv(45)
#    Time: 560 ns  Iteration: 0  Instance: /tb_top
# 1
# Break in Module tb_top at ./tb_top.sv line 45




























do run.do
# Model Technology ModelSim - Intel FPGA Edition vlog 2020.1 Compiler 2020.02 Feb 28 2020
# Start time: 15:38:20 on Aug 10,2023
# vlog -reportprogress 300 -f filelist.f 
# -- Compiling module counter
# -- Compiling interface counter_interface
# -- Compiling package counter_tb_package
# -- Compiling module tb_top
# -- Importing package counter_tb_package
# 
# Top level modules:
# 	tb_top
# End time: 15:38:21 on Aug 10,2023, Elapsed time: 0:00:01
# Errors: 0, Warnings: 0
# End time: 15:38:21 on Aug 10,2023, Elapsed time: 0:00:29
# Errors: 1, Warnings: 1
# vsim tb_top 
# Start time: 15:38:21 on Aug 10,2023
# Loading sv_std.std
# Loading work.counter_interface
# Loading work.counter_tb_package
# Loading work.tb_top
# Loading work.counter
# ** Warning: (vsim-PLI-3003) [TOFD] - System task or function '$$display' is not defined.
#    Time: 0 ps  Iteration: 0  Region: /counter_tb_package::counter_test::new File: counter_test.sv Line: 9
# ** Error (suppressible): (vsim-12023) Cannot execute undefined system task/function '$$display'
#    Time: 0 ps  Iteration: 0  Process: /tb_top/#INITIAL#39 File: counter_test.sv Line: 9
# Environment class created successfully
# agent class created successfully
# monitor class created successfully
# driver class created successfully
# scoreboard class created successfully
# drive reset to 0
# @20000 MNTR_PKT :: '{data_in:0, load:0, enable:0, up_down:0, reset:0, data_out:0}
# @20000 RCV_PKT :: '{data_in:0, load:0, enable:0, up_down:0, reset:0, data_out:0}
# @40000 MNTR_PKT :: '{data_in:0, load:0, enable:0, up_down:0, reset:1, data_out:0}
# @40000 RCV_PKT :: '{data_in:0, load:0, enable:0, up_down:0, reset:1, data_out:0}
# @60000 MNTR_PKT :: '{data_in:32, load:1, enable:0, up_down:0, reset:1, data_out:0}
# @60000 RCV_PKT :: '{data_in:32, load:1, enable:0, up_down:0, reset:1, data_out:0}
# 
# 
# Load test FAILED
# 
# 
# @80000 MNTR_PKT :: '{data_in:32, load:0, enable:0, up_down:0, reset:1, data_out:0}
# @80000 RCV_PKT :: '{data_in:32, load:0, enable:0, up_down:0, reset:1, data_out:0}
# @100000 MNTR_PKT :: '{data_in:32, load:0, enable:1, up_down:1, reset:1, data_out:1}
# @100000 RCV_PKT :: '{data_in:32, load:0, enable:1, up_down:1, reset:1, data_out:1}
# set load value
# @120000 MNTR_PKT :: '{data_in:32, load:0, enable:1, up_down:1, reset:1, data_out:2}
# @120000 RCV_PKT :: '{data_in:32, load:0, enable:1, up_down:1, reset:1, data_out:2}
# @140000 MNTR_PKT :: '{data_in:32, load:0, enable:1, up_down:1, reset:1, data_out:3}
# @140000 RCV_PKT :: '{data_in:32, load:0, enable:1, up_down:1, reset:1, data_out:3}
# up test
# @160000 MNTR_PKT :: '{data_in:32, load:1, enable:1, up_down:1, reset:1, data_out:4}
# @160000 RCV_PKT :: '{data_in:32, load:1, enable:1, up_down:1, reset:1, data_out:4}
# 
# 
# Load test FAILED
# 
# 
# @180000 MNTR_PKT :: '{data_in:32, load:0, enable:1, up_down:1, reset:1, data_out:5}
# Down test
# @180000 RCV_PKT :: '{data_in:32, load:0, enable:1, up_down:1, reset:1, data_out:5}
# @200000 MNTR_PKT :: '{data_in:32, load:0, enable:1, up_down:0, reset:1, data_out:6}
# @200000 RCV_PKT :: '{data_in:32, load:0, enable:1, up_down:0, reset:1, data_out:6}
# @220000 MNTR_PKT :: '{data_in:32, load:0, enable:1, up_down:0, reset:1, data_out:5}
# @220000 RCV_PKT :: '{data_in:32, load:0, enable:1, up_down:0, reset:1, data_out:5}
# @240000 MNTR_PKT :: '{data_in:32, load:0, enable:1, up_down:0, reset:1, data_out:4}
# @240000 RCV_PKT :: '{data_in:32, load:0, enable:1, up_down:0, reset:1, data_out:4}
# @260000 MNTR_PKT :: '{data_in:32, load:0, enable:1, up_down:0, reset:1, data_out:3}
# @260000 RCV_PKT :: '{data_in:32, load:0, enable:1, up_down:0, reset:1, data_out:3}
# @280000 MNTR_PKT :: '{data_in:32, load:1, enable:1, up_down:0, reset:1, data_out:32}
# @280000 RCV_PKT :: '{data_in:32, load:1, enable:1, up_down:0, reset:1, data_out:32}
# 
# 
# Load test PASS
# 
# 
# @300000 MNTR_PKT :: '{data_in:32, load:0, enable:1, up_down:0, reset:1, data_out:31}
# @300000 RCV_PKT :: '{data_in:32, load:0, enable:1, up_down:0, reset:1, data_out:31}
# @320000 MNTR_PKT :: '{data_in:32, load:0, enable:1, up_down:0, reset:1, data_out:30}
# @320000 RCV_PKT :: '{data_in:32, load:0, enable:1, up_down:0, reset:1, data_out:30}
# @340000 MNTR_PKT :: '{data_in:32, load:0, enable:1, up_down:0, reset:1, data_out:29}
# @340000 RCV_PKT :: '{data_in:32, load:0, enable:1, up_down:0, reset:1, data_out:29}
# @360000 MNTR_PKT :: '{data_in:0, load:0, enable:0, up_down:0, reset:0, data_out:0}
# @360000 RCV_PKT :: '{data_in:0, load:0, enable:0, up_down:0, reset:0, data_out:0}
# @380000 MNTR_PKT :: '{data_in:0, load:0, enable:0, up_down:0, reset:1, data_out:0}
# @380000 RCV_PKT :: '{data_in:0, load:0, enable:0, up_down:0, reset:1, data_out:0}
# @400000 MNTR_PKT :: '{data_in:0, load:0, enable:0, up_down:0, reset:1, data_out:0}
# @400000 RCV_PKT :: '{data_in:0, load:0, enable:0, up_down:0, reset:1, data_out:0}
# @420000 MNTR_PKT :: '{data_in:0, load:0, enable:0, up_down:0, reset:1, data_out:0}
# @420000 RCV_PKT :: '{data_in:0, load:0, enable:0, up_down:0, reset:1, data_out:0}
# @440000 MNTR_PKT :: '{data_in:0, load:0, enable:0, up_down:0, reset:1, data_out:0}
